{
  "logs": [
    {
      "message": "Blow wave",
      "attention": true,
      "tech": "Pieter Dirk Ace",
      "date": "2021-01-05T22:00:08.321Z",
      "id": 1
    }
  ],
  "techs": [
    {
      "firstName": "Pieter",
      "lastName": "Dirk Ace",
      "id": 9
    }
  ]
}